;	STMicroelectronics Project file

[Version]
Keyword=ST7Project
Number=1.3

[Project]
Name=_prgstm8s
Toolset=STM8 Cosmic

[Config]
0=Config.0
1=Config.1

[Config.0]
ConfigName=Debug
Target=$(ProjectSFile).elf
OutputFolder=Debug
Debug=$(TargetFName)

[Config.1]
ConfigName=Release
Target=_prgstm8s.elf
OutputFolder=Release
Debug=$(TargetFName)

[Root]
ElemType=Project
PathName=_prgstm8s
Child=Root.Source Files
Config.0=Root.Config.0
Config.1=Root.Config.1

[Root.Config.0]
Settings.0.0=Root.Config.0.Settings.0
Settings.0.1=Root.Config.0.Settings.1
Settings.0.2=Root.Config.0.Settings.2
Settings.0.3=Root.Config.0.Settings.3
Settings.0.4=Root.Config.0.Settings.4
Settings.0.5=Root.Config.0.Settings.5
Settings.0.6=Root.Config.0.Settings.6
Settings.0.7=Root.Config.0.Settings.7
Settings.0.8=Root.Config.0.Settings.8

[Root.Config.1]
Settings.1.0=Root.Config.1.Settings.0
Settings.1.1=Root.Config.1.Settings.1
Settings.1.2=Root.Config.1.Settings.2
Settings.1.3=Root.Config.1.Settings.3
Settings.1.4=Root.Config.1.Settings.4
Settings.1.5=Root.Config.1.Settings.5
Settings.1.6=Root.Config.1.Settings.6
Settings.1.7=Root.Config.1.Settings.7
Settings.1.8=Root.Config.1.Settings.8

[Root.Config.0.Settings.0]
String.6.0=2017,11,1,14,19,57
String.100.0=ST Assembler Linker
String.100.1=ST7 Cosmic
String.100.2=STM8 Cosmic
String.100.3=ST7 Metrowerks V1.1
String.100.4=Raisonance
String.101.0=STM8 Cosmic
String.102.0=C:\COSMIC\CXSTM8
String.103.0=
String.104.0=Hstm8
String.105.0=Lib
String.106.0=Debug
String.107.0=$(ProjectSFile).elf
Int.108=1

[Root.Config.0.Settings.1]
String.6.0=2016,6,6,11,6,11
String.100.0=$(TargetFName)
String.101.0=
String.102.0=
String.103.0=.\;

[Root.Config.0.Settings.2]
String.2.0=
String.6.0=2017,8,25,14,25,32
String.100.0=STM8S105C6

[Root.Config.0.Settings.3]
String.2.0=Compiling $(InputFile)...
String.3.0=cxstm8 +modsl0 -customDebCompat -customC-pp -customLst -l $(ToolsetIncOpts) -cl$(IntermPath) -co$(IntermPath) $(InputFile)
String.4.0=$(IntermPath)$(InputName).$(ObjectExt)
String.5.0=$(IntermPath)$(InputName).ls
String.6.0=2017,9,28,9,54,21

[Root.Config.0.Settings.4]
String.2.0=Assembling $(InputFile)...
String.3.0=castm8 -xx -l $(ToolsetIncOpts) -o$(IntermPath)$(InputName).$(ObjectExt) $(InputFile)
String.4.0=$(IntermPath)$(InputName).$(ObjectExt)
String.5.0=$(IntermPath)$(InputName).ls
String.6.0=2016,6,6,11,6,11

[Root.Config.0.Settings.5]
String.2.0=Running Pre-Link step
String.6.0=2016,6,6,11,6,11
String.8.0=

[Root.Config.0.Settings.6]
String.2.0=Running Linker
String.3.0=clnk $(ToolsetLibOpts) -o $(OutputPath)$(TargetSName).sm8 -fakeInteger -l"c:\program files\cosmic\cxstm8\lib" -fakeOutFile$(ProjectSFile).elf -fakeRunConv -fakeStartupcrtsi0.sm8 -fakeSemiAutoGen -fakeVectFilestm8_interrupt_vector.c -customMapFile -customMapFile-m$(OutputPath)$(TargetSName).map -customMapAddress -customCfgFile$(OutputPath)$(TargetSName).lkf 
String.3.1=cvdwarf $(OutputPath)$(TargetSName).sm8 -fakeVectAddr0x8000
String.4.0=$(OutputPath)$(TargetFName)
String.5.0=$(OutputPath)$(ProjectSFile).elf $(OutputPath)$(TargetSName).map
String.6.0=2017,8,25,14,25,32
String.100.0=
String.101.0=crtsi.st7
String.102.0=+seg .const -b 0x8080 -m 0x7f80 -n .const -it 
String.102.1=+seg .text -a .const -n .text 
String.102.2=+seg .eeprom -b 0x4000 -m 0x400 -n .eeprom 
String.102.3=+seg .bsct -b 0x0 -m 0x100 -n .bsct 
String.102.4=+seg .ubsct -a .bsct -n .ubsct 
String.102.5=+seg .bit -a .ubsct -n .bit -id 
String.102.6=+seg .share -a .bit -n .share -is 
String.102.7=+seg .data -b 0x100 -m 0x500 -n .data 
String.102.8=+seg .bss -a .data -n .bss
String.103.0=Code,Constants[0x8080-0xffff]=.const,.text
String.103.1=Eeprom[0x4000-0x43ff]=.eeprom
String.103.2=Zero Page[0x0-0xff]=.bsct,.ubsct,.bit,.share
String.103.3=Ram[0x100-0x5ff]=.data,.bss
String.104.0=0x7ff
String.105.0=libis0.sm8;libm0.sm8
Int.0=0
Int.1=0

[Root.Config.0.Settings.7]
String.2.0=Running Post-Build step
String.3.0=chex -o $(OutputPath)$(TargetSName).s19 $(OutputPath)$(TargetSName).sm8
String.6.0=2016,6,6,11,6,11

[Root.Config.0.Settings.8]
String.2.0=Performing Custom Build on $(InputFile)
String.6.0=2016,6,6,11,6,11

[Root.Config.1.Settings.0]
String.6.0=2016,6,6,11,6,11
String.100.0=ST Assembler Linker
String.100.1=ST7 Cosmic
String.100.2=STM8 Cosmic
String.100.3=ST7 Metrowerks V1.1
String.100.4=Raisonance
String.101.0=STM8 Cosmic
String.102.0=
String.103.0=
String.104.0=Hstm8
String.105.0=Lib
String.106.0=Release
String.107.0=_prgstm8s.elf
Int.108=0

[Root.Config.1.Settings.1]
String.6.0=2016,6,6,11,6,11
String.100.0=$(TargetFName)
String.101.0=
String.103.0=.\;

[Root.Config.1.Settings.2]
String.2.0=
String.6.0=2017,8,25,14,25,32
String.100.0=STM8S105C6

[Root.Config.1.Settings.3]
String.2.0=Compiling $(InputFile)...
String.3.0=cxstm8 +mods0 -customC-pp $(ToolsetIncOpts) -cl$(IntermPath) -co$(IntermPath) $(InputFile)
String.4.0=$(IntermPath)$(InputName).$(ObjectExt)
String.5.0=$(IntermPath)$(InputName).ls
String.6.0=2016,6,6,11,6,11

[Root.Config.1.Settings.4]
String.2.0=Assembling $(InputFile)...
String.3.0=castm8 $(ToolsetIncOpts) -o$(IntermPath)$(InputName).$(ObjectExt) $(InputFile)
String.4.0=$(IntermPath)$(InputName).$(ObjectExt)
String.5.0=$(IntermPath)$(InputName).ls
String.6.0=2016,6,6,11,6,11

[Root.Config.1.Settings.5]
String.2.0=Running Pre-Link step
String.6.0=2016,6,6,11,6,11

[Root.Config.1.Settings.6]
String.2.0=Running Linker
String.3.0=clnk -fakeRunConv -fakeInteger -fakeSemiAutoGen $(ToolsetLibOpts) -o $(OutputPath)$(TargetSName).sm8 -fakeOutFile$(ProjectSFile).elf -customCfgFile $(OutputPath)$(TargetSName).lkf -fakeVectFilestm8_interrupt_vector.c -fakeStartupcrtsi0.sm8 
String.3.1=cvdwarf $(OutputPath)$(TargetSName).sm8 -fakeVectAddr0x8000
String.4.0=$(OutputPath)$(TargetFName)
String.5.0=$(OutputPath)$(TargetSName).map $(OutputPath)$(TargetSName).st7 $(OutputPath)$(TargetSName).s19
String.6.0=2017,8,25,14,25,32
String.101.0=crtsi.st7
String.102.0=+seg .const -b 0x8080 -m 0x7f80 -n .const -it 
String.102.1=+seg .text -a .const -n .text 
String.102.2=+seg .eeprom -b 0x4000 -m 0x400 -n .eeprom 
String.102.3=+seg .bsct -b 0x0 -m 0x100 -n .bsct 
String.102.4=+seg .ubsct -a .bsct -n .ubsct 
String.102.5=+seg .bit -a .ubsct -n .bit -id 
String.102.6=+seg .share -a .bit -n .share -is 
String.102.7=+seg .data -b 0x100 -m 0x500 -n .data 
String.102.8=+seg .bss -a .data -n .bss
String.103.0=Code,Constants[0x8080-0xffff]=.const,.text
String.103.1=Eeprom[0x4000-0x43ff]=.eeprom
String.103.2=Zero Page[0x0-0xff]=.bsct,.ubsct,.bit,.share
String.103.3=Ram[0x100-0x5ff]=.data,.bss
String.104.0=0x7ff
Int.0=0
Int.1=0

[Root.Config.1.Settings.7]
String.2.0=Running Post-Build step
String.3.0=chex -o $(OutputPath)$(TargetSName).s19 $(OutputPath)$(TargetSName).sm8
String.6.0=2016,6,6,11,6,11

[Root.Config.1.Settings.8]
String.2.0=Performing Custom Build on $(InputFile)
String.6.0=2016,6,6,11,6,11

[Root.Source Files]
ElemType=Folder
PathName=Source Files
Child=Root.Source Files.beeper.c
Next=Root.Include Files
Config.0=Root.Source Files.Config.0
Config.1=Root.Source Files.Config.1

[Root.Source Files.Config.0]
Settings.0.0=Root.Source Files.Config.0.Settings.0
Settings.0.1=Root.Source Files.Config.0.Settings.1
Settings.0.2=Root.Source Files.Config.0.Settings.2
Settings.0.3=Root.Source Files.Config.0.Settings.3

[Root.Source Files.Config.1]
Settings.1.0=Root.Source Files.Config.1.Settings.0
Settings.1.1=Root.Source Files.Config.1.Settings.1
Settings.1.2=Root.Source Files.Config.1.Settings.2
Settings.1.3=Root.Source Files.Config.1.Settings.3

[Root.Source Files.Config.0.Settings.0]
String.6.0=2016,6,6,11,6,11
String.8.0=Debug
Int.0=0
Int.1=0

[Root.Source Files.Config.0.Settings.1]
String.2.0=Compiling $(InputFile)...
String.3.0=cxstm8 +modsl0 -customDebCompat -customC-pp -customLst -l $(ToolsetIncOpts) -cl$(IntermPath) -co$(IntermPath) $(InputFile)
String.4.0=$(IntermPath)$(InputName).$(ObjectExt)
String.5.0=$(IntermPath)$(InputName).ls
String.6.0=2017,9,28,9,54,21

[Root.Source Files.Config.0.Settings.2]
String.2.0=Assembling $(InputFile)...
String.3.0=castm8 -xx -l $(ToolsetIncOpts) -o$(IntermPath)$(InputName).$(ObjectExt) $(InputFile)
String.4.0=$(IntermPath)$(InputName).$(ObjectExt)
String.5.0=$(IntermPath)$(InputName).ls
String.6.0=2016,6,6,11,6,11

[Root.Source Files.Config.0.Settings.3]
String.2.0=Performing Custom Build on $(InputFile)
String.3.0=
String.4.0=
String.5.0=
String.6.0=2016,6,6,11,6,11

[Root.Source Files.Config.1.Settings.0]
String.6.0=2016,6,6,11,6,11
String.8.0=Release
Int.0=0
Int.1=0

[Root.Source Files.Config.1.Settings.1]
String.2.0=Compiling $(InputFile)...
String.3.0=cxstm8 +mods0 -customC-pp $(ToolsetIncOpts) -cl$(IntermPath) -co$(IntermPath) $(InputFile)
String.4.0=$(IntermPath)$(InputName).$(ObjectExt)
String.5.0=$(IntermPath)$(InputName).ls
String.6.0=2016,6,6,11,6,11

[Root.Source Files.Config.1.Settings.2]
String.2.0=Assembling $(InputFile)...
String.3.0=castm8 $(ToolsetIncOpts) -o$(IntermPath)$(InputName).$(ObjectExt) $(InputFile)
String.4.0=$(IntermPath)$(InputName).$(ObjectExt)
String.5.0=$(IntermPath)$(InputName).ls
String.6.0=2016,6,6,11,6,11

[Root.Source Files.Config.1.Settings.3]
String.2.0=Performing Custom Build on $(InputFile)
String.3.0=
String.4.0=
String.5.0=
String.6.0=2016,6,6,11,6,11

[Root.Source Files.beeper.c]
ElemType=File
PathName=beeper.c
Next=Root.Source Files.com_odu.c

[Root.Source Files.com_odu.c]
ElemType=File
PathName=com_odu.c
Next=Root.Source Files.hardware.c

[Root.Source Files.hardware.c]
ElemType=File
PathName=hardware.c
Next=Root.Source Files.key.c

[Root.Source Files.key.c]
ElemType=File
PathName=key.c
Next=Root.Source Files.led_disp.c

[Root.Source Files.led_disp.c]
ElemType=File
PathName=led_disp.c
Next=Root.Source Files.main.c

[Root.Source Files.main.c]
ElemType=File
PathName=main.c
Next=Root.Source Files.pt696x.c

[Root.Source Files.pt696x.c]
ElemType=File
PathName=pt696x.c
Next=Root.Source Files.stm8_interrupt_vector.c

[Root.Source Files.stm8_interrupt_vector.c]
ElemType=File
PathName=stm8_interrupt_vector.c
Next=Root.Source Files.system.c

[Root.Source Files.system.c]
ElemType=File
PathName=system.c
Next=Root.Source Files.uart.c

[Root.Source Files.uart.c]
ElemType=File
PathName=uart.c

[Root.Include Files]
ElemType=Folder
PathName=Include Files
Config.0=Root.Include Files.Config.0
Config.1=Root.Include Files.Config.1

[Root.Include Files.Config.0]
Settings.0.0=Root.Include Files.Config.0.Settings.0
Settings.0.1=Root.Include Files.Config.0.Settings.1
Settings.0.2=Root.Include Files.Config.0.Settings.2
Settings.0.3=Root.Include Files.Config.0.Settings.3

[Root.Include Files.Config.1]
Settings.1.0=Root.Include Files.Config.1.Settings.0
Settings.1.1=Root.Include Files.Config.1.Settings.1
Settings.1.2=Root.Include Files.Config.1.Settings.2
Settings.1.3=Root.Include Files.Config.1.Settings.3

[Root.Include Files.Config.0.Settings.0]
String.6.0=2016,6,6,11,6,11
String.8.0=Debug
Int.0=0
Int.1=0

[Root.Include Files.Config.0.Settings.1]
String.2.0=Compiling $(InputFile)...
String.3.0=cxstm8 +modsl0 -customDebCompat -customC-pp -customLst -l $(ToolsetIncOpts) -cl$(IntermPath) -co$(IntermPath) $(InputFile)
String.4.0=$(IntermPath)$(InputName).$(ObjectExt)
String.5.0=$(IntermPath)$(InputName).ls
String.6.0=2017,9,28,9,54,21

[Root.Include Files.Config.0.Settings.2]
String.2.0=Assembling $(InputFile)...
String.3.0=castm8 -xx -l $(ToolsetIncOpts) -o$(IntermPath)$(InputName).$(ObjectExt) $(InputFile)
String.4.0=$(IntermPath)$(InputName).$(ObjectExt)
String.5.0=$(IntermPath)$(InputName).ls
String.6.0=2016,6,6,11,6,11

[Root.Include Files.Config.0.Settings.3]
String.2.0=Performing Custom Build on $(InputFile)
String.3.0=
String.4.0=
String.5.0=
String.6.0=2016,6,6,11,6,11

[Root.Include Files.Config.1.Settings.0]
String.6.0=2016,6,6,11,6,11
String.8.0=Release
Int.0=0
Int.1=0

[Root.Include Files.Config.1.Settings.1]
String.2.0=Compiling $(InputFile)...
String.3.0=cxstm8 +mods0 -customC-pp $(ToolsetIncOpts) -cl$(IntermPath) -co$(IntermPath) $(InputFile)
String.4.0=$(IntermPath)$(InputName).$(ObjectExt)
String.5.0=$(IntermPath)$(InputName).ls
String.6.0=2016,6,6,11,6,11

[Root.Include Files.Config.1.Settings.2]
String.2.0=Assembling $(InputFile)...
String.3.0=castm8 $(ToolsetIncOpts) -o$(IntermPath)$(InputName).$(ObjectExt) $(InputFile)
String.4.0=$(IntermPath)$(InputName).$(ObjectExt)
String.5.0=$(IntermPath)$(InputName).ls
String.6.0=2016,6,6,11,6,11

[Root.Include Files.Config.1.Settings.3]
String.2.0=Performing Custom Build on $(InputFile)
String.3.0=
String.4.0=
String.5.0=
String.6.0=2016,6,6,11,6,11